{
    "characterSelection": [
        {
            "namePart": "Skin",
            "nameSprite": [],
            "color": [
                "#FFDFC4",
                "#E1B899",
                "#DB9065",
                "#A57257",
                "#5C3836"
            ]
        },
        {
            "namePart": "Hair",
            "nameSprite": [
                "hair1",
                "hair2",
                "hair3"
            ],
            "color": [
                "#FFFFFF",
                "#F9FE9F",
                "#301B09",
                "#612C00",
                "#FF8964",
                "#F23FEE"
            ]
        },
        {
            "namePart": "Shirt",
            "nameSprite": [
                "jacket",
                "shirt",
                "tshirt"
            ],
            "color": [
                "#FFFFFF",
                "#FFF98A",
                "#FF7700",
                "#0CA2BD",
                "#437F2D",
                "#F73635",
                "#EF4848",
                "#8063D5"
            ]
        },
        {
            "namePart": "Trousers",
            "nameSprite": [
                "trousers"
            ],
            "color": [
                "#FFFFFF",
                "#204193",
                "#374650",
                "#821D2B",
                "#373635",
                "#111111"
            ]
        },
        {
            "namePart": "Shoes",
            "nameSprite": [
                "shoes"
            ],
            "color": [
                "#FFFFFF",
                "#821D2B",
                "#02642E",
                "#374650",
                "#55387A",
                "#373635",
                "#111111"
            ]
        }
    ]
}
