{
    "hairPath": "Images/hair/",
    "indexHair": 0,
    "hairNames": [
        "hair1",
        "hair2",
        "hair3"
    ],
    "shirtPath": "Images/shirt/",
    "indexShirt": 2,
    "shirtNames": [
        "jacket",
        "shirtTie",
        "tshirt"
    ],
    "trousersPath": "Images/trousers/",
    "indexTrousers": 2,
    "trousersNames": [
        "trousers"
    ],
    "shoesPath": "Images/shoes/",
    "indexShoes": 2,
    "shoesNames": [
        "shoes"
    ]
}